{"event": {
  "events": [
    {
      "alternate": false,
      "description": "<p>Hone your fiction-writing skills in a timed environment. All writers are welcome.",
      "endTime": "2020-03-06T14:45-0800",
      "hashTag": "#WritingWorkout",
      "id": "2020001",
      "location": "Salon A/B",
      "participants": [{
        "id": "34",
        "type": "moderator"
      }],
      "sortKey": "5",
      "startTime": "2020-03-06T13:30-0800",
      "title": "75 Minute Writing Workout",
      "track": "",
      "type": "Panel"
    },
    {
      "alternate": false,
      "description": "<p>LGBTQ+ characters face a number of potential turning points -- both self-realizations and coming out to and/or confronting various people and institutions in their lives.  As more of these stories are told, what are some examples that ring true, and what are some that flopped? How do these stories translate into the speculative field, for instance, with a wider range of alien sexual options? Finally, LGBTQ+ characters -- like the real-life people they're based on -- have all the same other turning points that everyone else has, so when do we get to see more of those in fiction? What are some examples of that done well? What cautionary tales are out there?",
      "endTime": "2020-03-06T16:15-0800",
      "hashTag": "#LGBTQTurningPoints",
      "id": "2020002",
      "location": "Sacramento",
      "participants": [
        {
          "id": "61",
          "type": "moderator"
        },
        {
          "id": "78",
          "type": "participant"
        },
        {
          "id": "29",
          "type": "participant"
        },
        {
          "id": "75",
          "type": "participant"
        }
      ],
      "sortKey": "10",
      "startTime": "2020-03-06T15:00-0800",
      "title": "LGBTQ+ Turning Points",
      "track": "Panel",
      "type": "Panel"
    },
    {
      "alternate": false,
      "description": "<p>As we grow older, we gain more experience and (hopefully) grow wiser. Come hear writing advice from people who have devoted a significant amount of time to writing. What did they wish they had known starting out? What aspects of business or craft would have helped them in their careers, if they had only known earlier? How did they level up? What mistakes could have been avoided?",
      "endTime": "2020-03-06T16:15-0800",
      "hashTag": "#ThingsIWishIdKnown",
      "id": "2020003",
      "location": "Salon F",
      "participants": [
        {
          "id": "67",
          "type": "moderator"
        },
        {
          "id": "36",
          "type": "participant"
        },
        {
          "id": "40",
          "type": "participant"
        },
        {
          "id": "44",
          "type": "participant"
        },
        {
          "id": "69",
          "type": "participant"
        }
      ],
      "sortKey": "15",
      "startTime": "2020-03-06T15:00-0800",
      "title": "Things I Wish I'd Known Earlier: Writing Edition",
      "track": "Panel",
      "type": "Panel"
    },
    {
      "alternate": false,
      "description": "<p>Inspired by Mary Anne Mohanraj's latest publication being a cookbook, let's think about food and its place in genre fiction! In stories where a stranger visits a new culture, we often hear about their food choices (Becky Chambers's &quot;Record of a Spaceborn Few&quot; comes to mind).  Food can be a marker of similarity or difference between people, and ultimately, it is a necessity. When our worlds change, what happens to the food in them?",
      "endTime": "2020-03-06T16:15-0800",
      "hashTag": "#FoodinGenreFiction",
      "id": "2020004",
      "location": "Salon A/B",
      "participants": [
        {
          "id": "57",
          "type": "moderator"
        },
        {
          "id": "19",
          "type": "participant"
        },
        {
          "id": "46",
          "type": "participant"
        },
        {
          "id": "50",
          "type": "participant"
        },
        {
          "id": "63",
          "type": "participant"
        },
        {
          "id": "74",
          "type": "participant"
        }
      ],
      "sortKey": "20",
      "startTime": "2020-03-06T15:00-0800",
      "title": "Food in Genre Fiction",
      "track": "Panel",
      "type": "Panel"
    },
    {
      "alternate": false,
      "description": "",
      "endTime": "2020-03-06T16:15-0800",
      "hashTag": "#Reading1",
      "id": "2020005",
      "location": "Santa Rosa",
      "participants": [
        {
          "id": "2",
          "type": "participant"
        },
        {
          "id": "43",
          "type": "participant"
        },
        {
          "id": "55",
          "type": "participant"
        }
      ],
      "sortKey": "25",
      "startTime": "2020-03-06T15:00-0800",
      "title": "Reading #1",
      "track": "Reading",
      "type": "Reading"
    },
    {
      "alternate": false,
      "description": "<p>Bring your favorite board games to FOGcon, where they will be enjoyed by any and all who stop by. Be sure to list your games on the sign-in sheet to help them return to you before you leave.",
      "endTime": "2020-03-06T16:15-0800",
      "hashTag": "#GameRoomSetup",
      "id": "2020006",
      "location": "Salon C",
      "participants": [],
      "sortKey": "30",
      "startTime": "2020-03-06T15:00-0800",
      "title": "Bring Your Favorite Games",
      "track": "Other",
      "type": "Panel"
    },
    {
      "alternate": false,
      "description": "<p>A &quot;portal moment&quot; is when a character realizes the world is not what they grew up expecting. They step through a wardrobe, find out that their aunt is a witch, are attacked by tentacled creatures, watch an alien spaceship landing... How does a character respond to this revelation? How do we know if authors' depictions of such moments are realistic when, almost by definition, they have no equivalents in real life? Or do they? Are portal moments solely the domain of speculative fiction? Which authors depict it in the most convincing way?",
      "endTime": "2020-03-06T17:45-0800",
      "hashTag": "#PortalMoments",
      "id": "2020007",
      "location": "Salon F",
      "participants": [
        {
          "id": "54",
          "type": "moderator"
        },
        {
          "id": "79",
          "type": "participant"
        },
        {
          "id": "80",
          "type": "participant"
        },
        {
          "id": "23",
          "type": "participant"
        },
        {
          "id": "56",
          "type": "participant"
        }
      ],
      "sortKey": "35",
      "startTime": "2020-03-06T16:30-0800",
      "title": "Portal Moments",
      "track": "Panel",
      "type": "Panel"
    },
    {
      "alternate": false,
      "description": "<p>Having to get across a complicated point in a brief &quot;elevator pitch&quot; or even in an actual presentation can be very intimidating, whether you have five minutes or fifty. The legal system and basic moral sense mean you can't really kidnap your audience for appropriate brainwashing, so let's talk about tips for pitches, presentations, and proposals that won't end in your humiliating arrest, but might get other people excited about your idea. Whether for work or passion, being effective often depends on communicating your idea compellingly. Learn the common and a few uncommon mistakes, and how to avoid them.",
      "endTime": "2020-03-06T17:45-0800",
      "hashTag": "#MakingYourPoint",
      "id": "2020008",
      "location": "Salon A/B",
      "participants": [
        {
          "id": "7",
          "type": "moderator"
        },
        {
          "id": "11",
          "type": "participant"
        },
        {
          "id": "81",
          "type": "participant"
        },
        {
          "id": "60",
          "type": "participant"
        },
        {
          "id": "75",
          "type": "participant"
        }
      ],
      "sortKey": "40",
      "startTime": "2020-03-06T16:30-0800",
      "title": "Pitches, Presentations, and Proposals: Making Your Point and Knowing When to Stop",
      "track": "Panel",
      "type": "Panel"
    },
    {
      "alternate": false,
      "description": "",
      "endTime": "2020-03-06T17:45-0800",
      "hashTag": "#Reading2",
      "id": "2020009",
      "location": "Santa Rosa",
      "participants": [
        {
          "id": "8",
          "type": "participant"
        },
        {
          "id": "12",
          "type": "participant"
        },
        {
          "id": "69",
          "type": "participant"
        }
      ],
      "sortKey": "45",
      "startTime": "2020-03-06T16:30-0800",
      "title": "Reading #2",
      "track": "Reading",
      "type": "Reading"
    },
    {
      "alternate": false,
      "description": "<p>Social gathering for members who identify as people of color (only, please). We'll share questions, experiences, and solidarity. Coffee and tea will be provided. Anyone who wants can also bring their own snacks, from the Consuite or elsewhere.",
      "endTime": "2020-03-06T17:45-0800",
      "hashTag": "#POCMeetup",
      "id": "2020010",
      "location": "Salon C",
      "participants": [],
      "sortKey": "50",
      "startTime": "2020-03-06T16:30-0800",
      "title": "POC Meetup",
      "track": "Other",
      "type": "Panel"
    },
    {
      "alternate": false,
      "description": "<p>We'll start the convention off with a brief gathering to meet the Honored Guests and hear some words from the Honored Ghost.",
      "endTime": "2020-03-06T20:00-0800",
      "hashTag": "#OpeningCeremonies",
      "id": "2020011",
      "location": "Salon A/B",
      "participants": [],
      "sortKey": "55",
      "startTime": "2020-03-06T19:45-0800",
      "title": "Opening Ceremonies",
      "track": "",
      "type": "Panel"
    },
    {
      "alternate": false,
      "description": "<p>One of the ways people talk about alternate history is the &quot;What if?&quot; around some big (or small) turning point. Our panelists will come prepared with one of their own, and we'll also take audience submissions to construct some &quot;This is what could have been&quot; had history gone differently.",
      "endTime": "2020-03-06T21:15-0800",
      "hashTag": "#LetsBuildSomeHistories",
      "id": "2020012",
      "location": "Salon F",
      "participants": [
        {
          "id": "65",
          "type": "moderator"
        },
        {
          "id": "25",
          "type": "participant"
        },
        {
          "id": "38",
          "type": "participant"
        },
        {
          "id": "49",
          "type": "participant"
        },
        {
          "id": "62",
          "type": "participant"
        }
      ],
      "sortKey": "60",
      "startTime": "2020-03-06T20:00-0800",
      "title": "Let's Build Some Histories!",
      "track": "Panel",
      "type": "Panel"
    },
    {
      "alternate": false,
      "description": "<p>Genre fiction allows us to imagine worlds and cultures completely different from ours, yet sometimes some cultural assumptions are so ingrained that we don't consider them changeable. For example, Mary Anne Mohanraj's &quot;The Stars Change&quot; is a book that challenges the assumption of monogamy. What other assumptions do we see carrying into the new spaces and cultures we create? How can we break out of those?",
      "endTime": "2020-03-06T21:15-0800",
      "hashTag": "#SocietalDefaults",
      "id": "2020013",
      "location": "Salon A/B",
      "participants": [
        {
          "id": "16",
          "type": "moderator"
        },
        {
          "id": "7",
          "type": "participant"
        },
        {
          "id": "12",
          "type": "participant"
        },
        {
          "id": "27",
          "type": "participant"
        },
        {
          "id": "46",
          "type": "participant"
        }
      ],
      "sortKey": "65",
      "startTime": "2020-03-06T20:00-0800",
      "title": "Societal Defaults That Carry Into Genre",
      "track": "Panel",
      "type": "Panel"
    },
    {
      "alternate": false,
      "description": "",
      "endTime": "2020-03-06T21:15-0800",
      "hashTag": "#Reading3",
      "id": "2020014",
      "location": "Santa Rosa",
      "participants": [
        {
          "id": "82",
          "type": "participant"
        },
        {
          "id": "56",
          "type": "participant"
        },
        {
          "id": "63",
          "type": "participant"
        },
        {
          "id": "75",
          "type": "participant"
        }
      ],
      "sortKey": "70",
      "startTime": "2020-03-06T20:00-0800",
      "title": "Reading #3",
      "track": "Reading",
      "type": "Reading"
    },
    {
      "alternate": false,
      "description": "<p>A behind-the-scenes look at what goes on in the slush pile. Audience members will bring in the first 250 words of a short story or novel. The moderator will read the excerpt, and a panel of editors and slush readers will raise a hand when they would stop reading. Panelists will give us some insight into how they made decisions about each excerpt, discussing strengths, weaknesses, and fit.",
      "endTime": "2020-03-06T22:45-0800",
      "hashTag": "#SlushOMatic",
      "id": "2020015",
      "location": "Salon A/B",
      "participants": [
        {
          "id": "40",
          "type": "moderator"
        },
        {
          "id": "1",
          "type": "participant"
        },
        {
          "id": "60",
          "type": "participant"
        },
        {
          "id": "70",
          "type": "participant"
        }
      ],
      "sortKey": "75",
      "startTime": "2020-03-06T21:30-0800",
      "title": "Slush-O-Matic",
      "track": "Panel",
      "type": "Panel"
    },
    {
      "alternate": false,
      "description": "",
      "endTime": "2020-03-06T22:45-0800",
      "hashTag": "#Reading4",
      "id": "2020016",
      "location": "Salon F",
      "participants": [
        {
          "id": "6",
          "type": "participant"
        },
        {
          "id": "32",
          "type": "participant"
        },
        {
          "id": "45",
          "type": "participant"
        }
      ],
      "sortKey": "80",
      "startTime": "2020-03-06T21:30-0800",
      "title": "Reading #4",
      "track": "Reading",
      "type": "Reading"
    },
    {
      "alternate": false,
      "description": "<p>Sing the night away with Bruce Rogers and Kor Karaoke! (This event will continue past 11:00 if there is interest.)",
      "endTime": "2020-03-06T22:45-0800",
      "hashTag": "#Karaoke",
      "id": "2020017",
      "location": "Sacramento",
      "participants": [],
      "sortKey": "85",
      "startTime": "2020-03-06T21:30-0800",
      "title": "Karaoke",
      "track": "",
      "type": "Special"
    },
    {
      "alternate": false,
      "description": "<p>Archives are science fictional: archivists have to anticipate climate change, the evolution of technology, and how historians will view the present day. Archives are fantastical: they involve a deep encounter with the past, redolent of parchment, leather, and the dust of vanished information. This panel will explore archives as an SFF-nal phenomenon, as well as portrayals of archives and archivists in science fiction and fantasy.",
      "endTime": "2020-03-07T10:15-0800",
      "hashTag": "#ArchivesandGenre",
      "id": "2020018",
      "location": "Salon A/B",
      "participants": [
        {
          "id": "10",
          "type": "moderator"
        },
        {
          "id": "15",
          "type": "participant"
        },
        {
          "id": "41",
          "type": "participant"
        },
        {
          "id": "46",
          "type": "participant"
        },
        {
          "id": "71",
          "type": "participant"
        }
      ],
      "sortKey": "90",
      "startTime": "2020-03-07T09:00-0800",
      "title": "Archives and Genre",
      "track": "Panel",
      "type": "Panel"
    },
    {
      "alternate": false,
      "description": "<p>Honored Guest Nisi Shawl has agreed to be a part of a Black Women Writers reading of original speculative fiction and fantasy and science fiction, with Q&amp;A and participation from other local Black Women Writers from the AfroSurreal Writers Workshop of Oakland and additional invited authors.Panelists will read current work and will also come with questions they wish to answer about their influences, the first book/story/author that turned them on to these genres, the turning point when they put pen to paper/fingers to keyboard and began to write the fantastic, how they keep their imaginations flowing out and into their writing, inspirations reflected in their work, and how society shows up in their writing. We will wrap up with a short, intuitive writing exercise.",
      "endTime": "2020-03-07T11:45-0800",
      "hashTag": "#SitForASpell",
      "id": "2020019",
      "location": "Salon A/B",
      "participants": [{
        "id": "83",
        "type": "participant"
      }],
      "sortKey": "95",
      "startTime": "2020-03-07T10:30-0800",
      "title": "Sit for a Spell: Black Women Writers Discuss Turning Points in Their Literary Lives",
      "track": "Panel",
      "type": "Panel"
    },
    {
      "alternate": false,
      "description": "<p>For many of us, the &quot;Choose Your Own Adventure&quot; books were an early exposure to speculative fiction -- and we remember them with fondness. They are also experiencing a pop-culture resurgence. Panelists will discuss some of their favorite examples, what is different about the books (both the experience of writing and reading them), and their influence on the wider culture. ",
      "endTime": "2020-03-07T11:45-0800",
      "hashTag": "#ChoosingYourOwnAdventures",
      "id": "2020020",
      "location": "Salon F",
      "participants": [
        {
          "id": "34",
          "type": "moderator"
        },
        {
          "id": "18",
          "type": "participant"
        },
        {
          "id": "19",
          "type": "participant"
        },
        {
          "id": "68",
          "type": "participant"
        }
      ],
      "sortKey": "100",
      "startTime": "2020-03-07T10:30-0800",
      "title": "Choosing Your Own Adventures",
      "track": "Panel",
      "type": "Panel"
    },
    {
      "alternate": false,
      "description": "<p>Kids will list their three favorite books, and we'll get statements from the participants as to *why* they're the favorites -- bring a pencil and paper, because you'll leave with a lot of titles to consider!Then -- it's the kid's/young adult's version of the FOGcon classic ConTention panel, where we have the arguments that happen over and over, in a (somewhat) organized format!(This is a Children's/Young Adult panel.)",
      "endTime": "2020-03-07T11:45-0800",
      "hashTag": "#KidsConTention",
      "id": "2020021",
      "location": "Sacramento",
      "participants": [{
        "id": "65",
        "type": "moderator"
      }],
      "sortKey": "105",
      "startTime": "2020-03-07T10:30-0800",
      "title": "Bring Your Favorite Books/Kid's ConTention",
      "track": "Panel",
      "type": "Panel"
    },
    {
      "alternate": false,
      "description": "<p>Back by popular demand, a show-and-tell of the coolest gadgets, contraptions, gizmos, and gewgaws brought in by fellow attendees. Got something to show off, bring it!",
      "endTime": "2020-03-07T11:45-0800",
      "hashTag": "#GadgetPettingZoo",
      "id": "2020022",
      "location": "Salon C",
      "participants": [],
      "sortKey": "110",
      "startTime": "2020-03-07T10:30-0800",
      "title": "Gadget Petting Zoo",
      "track": "Other",
      "type": "Panel"
    },
    {
      "alternate": false,
      "description": "",
      "endTime": "2020-03-07T11:45-0800",
      "hashTag": "#Reading5",
      "id": "2020023",
      "location": "Santa Rosa",
      "participants": [
        {
          "id": "22",
          "type": "participant"
        },
        {
          "id": "31",
          "type": "participant"
        },
        {
          "id": "67",
          "type": "participant"
        }
      ],
      "sortKey": "115",
      "startTime": "2020-03-07T10:30-0800",
      "title": "Reading #5",
      "track": "Reading",
      "type": "Reading"
    },
    {
      "alternate": false,
      "description": "<p>The Un-Award Banquet has a buffet lunch with options for most diet preferences and limitations. It's a chance to hang out with your friends, support the convention, and listen to (almost) no speeches. We have a limited number of spaces, so buy your ticket at registration early in the convention.",
      "endTime": "2020-03-07T13:15-0800",
      "hashTag": "#UnawardBanquet",
      "id": "2020024",
      "location": "Contra Costa Ballroom",
      "participants": [],
      "sortKey": "120",
      "startTime": "2020-03-07T12:00-0800",
      "title": "Unaward Banquet",
      "track": "Other",
      "type": "Meal"
    },
    {
      "alternate": false,
      "description": "<p>Is it critical to know the name of the king when you're setting a story in a historical period? Maybe. Is it critical to know steam power didn't exist during the Wars of the Roses? Yes. (Unless you're writing alternate history.) Is it critical to know the names of the Swiss Guard who died defending Louis XVI? Almost certainly not, and quite hard to determine anyway.How much research is enough -- and how much is too much? Writers who strive for accuracy risk getting bogged down in their research. How do we avoid this trap? As writers, how do you know when to stop research and start writing, and as readers, how much do you expect writers to know? ",
      "endTime": "2020-03-07T14:45-0800",
      "hashTag": "#HowDeepDoWeDig",
      "id": "2020025",
      "location": "Salon F",
      "participants": [
        {
          "id": "34",
          "type": "moderator"
        },
        {
          "id": "1",
          "type": "participant"
        },
        {
          "id": "8",
          "type": "participant"
        },
        {
          "id": "18",
          "type": "participant"
        },
        {
          "id": "32",
          "type": "participant"
        },
        {
          "id": "58",
          "type": "participant"
        }
      ],
      "sortKey": "125",
      "startTime": "2020-03-07T13:30-0800",
      "title": "How Deep Do We Dig: Research for Writers",
      "track": "Panel",
      "type": "Panel"
    },
    {
      "alternate": false,
      "description": "<p>Autonomous vehicles now have permission to test on public streets around the country, even though at least one vehicle has killed a pedestrian due to faulty programming. At what point should they be considered safe enough to be entirely autonomous? Should they have to pass the state's human driving test? And who should be legally responsible for the next death?",
      "endTime": "2020-03-07T14:45-0800",
      "hashTag": "#AutonomousVehicles",
      "id": "2020026",
      "location": "Sacramento",
      "participants": [
        {
          "id": "29",
          "type": "moderator"
        },
        {
          "id": "84",
          "type": "participant"
        },
        {
          "id": "24",
          "type": "participant"
        },
        {
          "id": "38",
          "type": "participant"
        },
        {
          "id": "73",
          "type": "participant"
        }
      ],
      "sortKey": "130",
      "startTime": "2020-03-07T13:30-0800",
      "title": "Autonomous Vehicles Driving Down Your Street: Boon or Horror Story?",
      "track": "Panel",
      "type": "Panel"
    },
    {
      "alternate": false,
      "description": "<p>A kid-friendly environment for anyone to relax and use the provided art supplies to draw, sketch, doodle, and create. Display your creations for all to see, or just stop by to browse.",
      "endTime": "2020-03-07T14:45-0800",
      "hashTag": "#HandsOnArtHour",
      "id": "2020027",
      "location": "Salon C",
      "participants": [],
      "sortKey": "135",
      "startTime": "2020-03-07T13:30-0800",
      "title": "Hands-On Art Hour",
      "track": "Other",
      "type": "Panel"
    },
    {
      "alternate": false,
      "description": "",
      "endTime": "2020-03-07T14:45-0800",
      "hashTag": "#Reading6",
      "id": "2020028",
      "location": "Santa Rosa",
      "participants": [
        {
          "id": "5",
          "type": "participant"
        },
        {
          "id": "40",
          "type": "participant"
        },
        {
          "id": "52",
          "type": "participant"
        }
      ],
      "sortKey": "140",
      "startTime": "2020-03-07T13:30-0800",
      "title": "Reading #6",
      "track": "Reading",
      "type": "Reading"
    },
    {
      "alternate": false,
      "description": "<p>Mary Anne will share what she's learned about nonprofits and the field, discussing con-running and organizations such as Con or Bust, Strange Horizons, and her own Speculative Literature Foundation. Topics may include succession planning, professionalization (and its hazards), organizational growth, fundraising, inclusiveness / exclusion, and realistic enforcement of convention codes of conduct.",
      "endTime": "2020-03-07T14:45-0800",
      "hashTag": "#Genre Nonprofits",
      "id": "2020029",
      "location": "Salon A/B",
      "participants": [{
        "id": "46",
        "type": "participant"
      }],
      "sortKey": "145",
      "startTime": "2020-03-07T13:30-0800",
      "title": "Genre Nonprofits With Mary Anne Mohanraj",
      "track": "",
      "type": "Panel"
    },
    {
      "alternate": false,
      "description": "<p>Join our panelists for a lively debate as to whether artificial intelligence is (or will be) a friend or foe of humanity. How do the depictions in stories such as Iain M. Banks's Culture novels, Becky Chambers's Wayfarers series, and the Terminator series reflect our hopes and fears for our safety, sense of belonging, and self actualization?",
      "endTime": "2020-03-07T16:15-0800",
      "hashTag": "#AIFriendorFoe",
      "id": "2020030",
      "location": "Salon F",
      "participants": [
        {
          "id": "65",
          "type": "moderator"
        },
        {
          "id": "51",
          "type": "participant"
        },
        {
          "id": "55",
          "type": "participant"
        },
        {
          "id": "56",
          "type": "participant"
        },
        {
          "id": "67",
          "type": "participant"
        }
      ],
      "sortKey": "150",
      "startTime": "2020-03-07T15:00-0800",
      "title": "Artificial Intelligence: Friend or Foe?",
      "track": "Panel",
      "type": "Panel"
    },
    {
      "alternate": false,
      "description": "<p>So many well-known SFF stories focus on saving or changing the world, yet smaller scale stories matter. Many people have talked about the difficulties of making domestic concerns story-shaped. However, it&rsquo;s important to have stories about caretaking, love, warmth, and good food. There&rsquo;s value in small scale stories about people solving problems without violence and stories about forming communities. These stories help us imagine that we can use the skills that we have to mend the world. So let's celebrate small, cozy, and domestic stories!  ",
      "endTime": "2020-03-07T16:15-0800",
      "hashTag": "#SmallScaleSFF",
      "id": "2020031",
      "location": "Salon A/B",
      "participants": [
        {
          "id": "54",
          "type": "moderator"
        },
        {
          "id": "14",
          "type": "participant"
        },
        {
          "id": "40",
          "type": "participant"
        },
        {
          "id": "45",
          "type": "participant"
        },
        {
          "id": "50",
          "type": "participant"
        }
      ],
      "sortKey": "155",
      "startTime": "2020-03-07T15:00-0800",
      "title": "Small Scale SFF",
      "track": "Panel",
      "type": "Panel"
    },
    {
      "alternate": false,
      "description": "<p>Horror may be the genre of darkness, but it needs bright colors to tell its stories: the stark red of blood and demons, the eerie blues of frigid snowscapes and dangerous oceans, the faint glowing green of unearthly monsters. How do horror movies, video games, and other visual arts use color to telegraph moods, themes, and sensations? Conversely, why have shadow and darkness been such important thematic and visual hallmarks of horror literature and film? How did the shift from black and white to color filmmaking change horror movies? What book jacket colors and illustrations does horror fiction tend to feature, and why? How does race and racism inflect horror&rsquo;s conceptions of color?",
      "endTime": "2020-03-07T16:15-0800",
      "hashTag": "#ShadesofFearColorinHorror",
      "id": "2020032",
      "location": "Sacramento",
      "participants": [
        {
          "id": "82",
          "type": "moderator"
        },
        {
          "id": "13",
          "type": "participant"
        },
        {
          "id": "30",
          "type": "participant"
        },
        {
          "id": "44",
          "type": "participant"
        }
      ],
      "sortKey": "160",
      "startTime": "2020-03-07T15:00-0800",
      "title": "Shades of Fear: Color in Horror",
      "track": "Panel",
      "type": "Panel"
    },
    {
      "alternate": false,
      "description": "<p>No RPG experience required! Come flex your imagination with pen-and-paper and card-based role playing games. There will be two hosts present, each guiding adventurers through a unique experience.Table One: The Pirates of Kepler Valley: Find the space pirates and track them back to their base. Enlist today! A pen-and-paper game based on the Tachyon Squadron RPG on the Fate Core system.Table Two: For the Queen: A card-based story-building game. The Queen has chosen you, and only you, to accompany her on a dangerous journey...",
      "endTime": "2020-03-07T16:15-0800",
      "hashTag": "#FOGconRPG",
      "id": "2020033",
      "location": "Salon C",
      "participants": [
        {
          "id": "39",
          "type": "moderator"
        },
        {
          "id": "85",
          "type": "participant"
        }
      ],
      "sortKey": "165",
      "startTime": "2020-03-07T15:00-0800",
      "title": "Come RPG With Me",
      "track": "Other",
      "type": "Gaming"
    },
    {
      "alternate": false,
      "description": "",
      "endTime": "2020-03-07T16:15-0800",
      "hashTag": "#HonoredGuestReading",
      "id": "2020034",
      "location": "Santa Rosa",
      "participants": [
        {
          "id": "46",
          "type": "participant"
        },
        {
          "id": "83",
          "type": "participant"
        }
      ],
      "sortKey": "170",
      "startTime": "2020-03-07T15:00-0800",
      "title": "Honored Guest Reading",
      "track": "Reading",
      "type": "Reading"
    },
    {
      "alternate": false,
      "description": "<p>80% of humans live in cities. The automobile, the bicycle, the tram, and the elevator have all shaped human cities. How do changes in technology change how cities look in speculative fiction? Are there works that do it well, or that do it badly? How do cities change the stories we tell? Are they characters more then scenery?",
      "endTime": "2020-03-07T17:45-0800",
      "hashTag": "#CitiesinScienceFiction",
      "id": "2020035",
      "location": "Salon A/B",
      "participants": [
        {
          "id": "38",
          "type": "moderator"
        },
        {
          "id": "3",
          "type": "participant"
        },
        {
          "id": "20",
          "type": "participant"
        },
        {
          "id": "37",
          "type": "participant"
        },
        {
          "id": "62",
          "type": "participant"
        }
      ],
      "sortKey": "175",
      "startTime": "2020-03-07T16:30-0800",
      "title": "Cities in Science Fiction",
      "track": "Panel",
      "type": "Panel"
    },
    {
      "alternate": false,
      "description": "<p>Colored by love, blood, and violent circumstance, the speculative fiction by these four women wanders from Latinx-infused dark fantasy to succubi stalking the angels of LA to literary horror that dissects the very nature of human relationships. Join us to discover what love is -- and why you should fear it.",
      "endTime": "2020-03-07T17:45-0800",
      "hashTag": "#DangerousWomenReading",
      "id": "2020036",
      "location": "Santa Rosa",
      "participants": [
        {
          "id": "30",
          "type": "participant"
        },
        {
          "id": "33",
          "type": "participant"
        },
        {
          "id": "44",
          "type": "participant"
        },
        {
          "id": "60",
          "type": "participant"
        }
      ],
      "sortKey": "180",
      "startTime": "2020-03-07T16:30-0800",
      "title": "Dangerous Women Reading",
      "track": "Panel",
      "type": "Panel"
    },
    {
      "alternate": false,
      "description": "<p>Many of the common tropes/subjects of alternate history are based on European histories -- and thus don't take much of the rest of the world, and non-white people, into account. There are notable exceptions -- Kim Stanley Robinson's &quot;Years of Rice and Salt,&quot; or our Honored Guest Nisi Shawl's &quot;Everfair&quot; -- but what are some other examples? What are the benefits (and the dangers) of tackling this approach? What are some of the (currently) missed golden opportunities for alternate histories involving POC?",
      "endTime": "2020-03-07T17:45-0800",
      "hashTag": "#HistoryIsNotWhite",
      "id": "2020037",
      "location": "Salon F",
      "participants": [
        {
          "id": "61",
          "type": "moderator"
        },
        {
          "id": "5",
          "type": "participant"
        },
        {
          "id": "79",
          "type": "participant"
        },
        {
          "id": "21",
          "type": "participant"
        },
        {
          "id": "76",
          "type": "participant"
        }
      ],
      "sortKey": "185",
      "startTime": "2020-03-07T16:30-0800",
      "title": "History Is Not White -- and Neither Is Alternate History",
      "track": "Panel",
      "type": "Panel"
    },
    {
      "alternate": false,
      "description": "<p>Role playing games are known for being engrossing. In case participants get wrapped up in a game, we're reserving an extra 90 minutes for the adventures to play on.",
      "endTime": "2020-03-07T17:45-0800",
      "hashTag": "#FOGconRPG",
      "id": "2020038",
      "location": "Salon C",
      "participants": [],
      "sortKey": "190",
      "startTime": "2020-03-07T16:30-0800",
      "title": "Extended RPG Time",
      "track": "Other",
      "type": "Gaming"
    },
    {
      "alternate": false,
      "description": "<p>Horror has always been interested in the uses and abuses of power. One form that this interest has taken is its commentary on social class, from 18th- and 19th-century Gothic literature&rsquo;s critiques of the aristocracy (Castle of Otranto [1764]; Dracula [1897]) to recent horror cinema&rsquo;s skewering of the grotesque inequalities that persist under capitalism (Bong Joon-ho&rsquo;s Parasite [2019], Jordan Peele&rsquo;s Us [2019], The Purge franchise). What are the specific tools that horror offers in terms of class commentary, and what are the limits of its critiques? How has horror&rsquo;s engagement with social class evolved over time? What are the conservative and progressive faces of horror with regard to class? ",
      "endTime": "2020-03-07T21:15-0800",
      "hashTag": "#EatingTheRich",
      "id": "2020039",
      "location": "Salon F",
      "participants": [
        {
          "id": "28",
          "type": "moderator"
        },
        {
          "id": "14",
          "type": "participant"
        },
        {
          "id": "30",
          "type": "participant"
        },
        {
          "id": "59",
          "type": "participant"
        },
        {
          "id": "64",
          "type": "participant"
        }
      ],
      "sortKey": "195",
      "startTime": "2020-03-07T20:00-0800",
      "title": "Eating the Rich: Horror and Class",
      "track": "Panel",
      "type": "Panel"
    },
    {
      "alternate": false,
      "description": "",
      "endTime": "2020-03-07T21:15-0800",
      "hashTag": "#Reading7",
      "id": "2020040",
      "location": "Santa Rosa",
      "participants": [
        {
          "id": "9",
          "type": "participant"
        },
        {
          "id": "36",
          "type": "participant"
        },
        {
          "id": "77",
          "type": "participant"
        }
      ],
      "sortKey": "200",
      "startTime": "2020-03-07T20:00-0800",
      "title": "Reading #7",
      "track": "Reading",
      "type": "Reading"
    },
    {
      "alternate": false,
      "description": "<p>Nisi has a few songs they've written, friends have songs to share, and everyone loves the old standards. This evening program will be a chance to sing together as a group, regardless of experience level. Maybe put on a harmony?",
      "endTime": "2020-03-07T21:15-0800",
      "hashTag": "#GroupSingalong",
      "id": "2020041",
      "location": "Salon A/B",
      "participants": [{
        "id": "83",
        "type": "participant"
      }],
      "sortKey": "205",
      "startTime": "2020-03-07T20:00-0800",
      "title": "Group Singalong With Nisi Shawl",
      "track": "",
      "type": "Special"
    },
    {
      "alternate": false,
      "description": "<p>The FOGcon tradition continues! Participants will bring their SFnal arguments (some extra arguments will be provided), and we'll hash out potential answers, as arguers switch sides, sit down, stand up, and throw their arms in the air in disbelief.",
      "endTime": "2020-03-07T22:45-0800",
      "hashTag": "#ConTention",
      "id": "2020042",
      "location": "Salon F",
      "participants": [{
        "id": "65",
        "type": "moderator"
      }],
      "sortKey": "210",
      "startTime": "2020-03-07T21:30-0800",
      "title": "ConTention",
      "track": "Panel",
      "type": "Panel"
    },
    {
      "alternate": false,
      "description": "",
      "endTime": "2020-03-07T22:45-0800",
      "hashTag": "#Reading8",
      "id": "2020043",
      "location": "Santa Rosa",
      "participants": [
        {
          "id": "15",
          "type": "participant"
        },
        {
          "id": "27",
          "type": "participant"
        },
        {
          "id": "47",
          "type": "participant"
        }
      ],
      "sortKey": "215",
      "startTime": "2020-03-07T21:30-0800",
      "title": "Reading #8",
      "track": "Reading",
      "type": "Reading"
    },
    {
      "alternate": false,
      "description": "<p>There are too many podcasts for genre fiction readers and writers for any one person to keep track of. What are the best for readers? Which are the most helpful for writers? How does the medium of podcasting change a story?",
      "endTime": "2020-03-08T10:15-0700",
      "hashTag": "#SFFPodcasts",
      "id": "2020044",
      "location": "Salon F",
      "participants": [
        {
          "id": "32",
          "type": "moderator"
        },
        {
          "id": "26",
          "type": "participant"
        },
        {
          "id": "45",
          "type": "participant"
        }
      ],
      "sortKey": "220",
      "startTime": "2020-03-08T09:00-0700",
      "title": "SFF Podcasts: What's Out There and What Does It Sound Like?",
      "track": "Panel",
      "type": "Panel"
    },
    {
      "alternate": false,
      "description": "<p>Her heart-shaped face. His chiseled jaw. He's ruggedly handsome. Her rose-colored complexion. The women are stunningly beautiful or haggardly ugly. Her cinnamon visage, his coffee-colored arms. He stared stonily. Women sob. Men weep. What are better ways to describe actual people and what they do, without falling into gendered and racialized tropes?",
      "endTime": "2020-03-08T11:45-0700",
      "hashTag": "#PeopleArentFood",
      "id": "2020045",
      "location": "Salon F",
      "participants": [
        {
          "id": "7",
          "type": "moderator"
        },
        {
          "id": "86",
          "type": "participant"
        },
        {
          "id": "19",
          "type": "participant"
        },
        {
          "id": "67",
          "type": "participant"
        },
        {
          "id": "83",
          "type": "participant"
        }
      ],
      "sortKey": "225",
      "startTime": "2020-03-08T10:30-0700",
      "title": "People Aren't Food: Cliches in Description",
      "track": "Panel",
      "type": "Panel"
    },
    {
      "alternate": false,
      "description": "<p>According to a 2019 article by Vox.com, &quot;hopepunk&quot; says that genuinely, sincerely caring about something requires bravery and strength. In a repressive regime, realistic optimism can be a radical act. How do hopepunk and solarpunk offer tools to counter corruption, social inequity, and repression? How does the subgenre help us defeat cynicism and defeatism, or does it?",
      "endTime": "2020-03-08T11:45-0700",
      "hashTag": "#TheValueofHopepunk",
      "id": "2020046",
      "location": "Salon A/B",
      "participants": [
        {
          "id": "27",
          "type": "moderator"
        },
        {
          "id": "5",
          "type": "participant"
        },
        {
          "id": "9",
          "type": "participant"
        },
        {
          "id": "79",
          "type": "participant"
        },
        {
          "id": "24",
          "type": "participant"
        }
      ],
      "sortKey": "230",
      "startTime": "2020-03-08T10:30-0700",
      "title": "The Value of Hopepunk",
      "track": "Panel",
      "type": "Panel"
    },
    {
      "alternate": false,
      "description": "",
      "endTime": "2020-03-08T11:45-0700",
      "hashTag": "#Reading9",
      "id": "2020047",
      "location": "Santa Rosa",
      "participants": [
        {
          "id": "18",
          "type": "participant"
        },
        {
          "id": "34",
          "type": "participant"
        },
        {
          "id": "74",
          "type": "participant"
        }
      ],
      "sortKey": "235",
      "startTime": "2020-03-08T10:30-0700",
      "title": "Reading #9",
      "track": "Reading",
      "type": "Reading"
    },
    {
      "alternate": false,
      "description": "<p>In &quot;The Dispossessed,&quot; Ursula K. LeGuin imagined a society without money. Is this plausible? If it's plausible on Anarres, is it possible in our world? How do other SF/F authors re-imagine money? How do their visions shed light on money in our own world? And if we like their visions, how could we push our world in that direction?",
      "endTime": "2020-03-08T14:45-0700",
      "hashTag": "#IsAnarresPlausible",
      "id": "2020048",
      "location": "Salon A/B",
      "participants": [
        {
          "id": "54",
          "type": "moderator"
        },
        {
          "id": "24",
          "type": "participant"
        },
        {
          "id": "47",
          "type": "participant"
        },
        {
          "id": "48",
          "type": "participant"
        },
        {
          "id": "58",
          "type": "participant"
        },
        {
          "id": "65",
          "type": "participant"
        }
      ],
      "sortKey": "240",
      "startTime": "2020-03-08T13:30-0700",
      "title": "Is Anarres Plausible? Economic Justice in SF/F",
      "track": "Panel",
      "type": "Panel"
    },
    {
      "alternate": false,
      "description": "",
      "endTime": "2020-03-08T14:45-0700",
      "hashTag": "#Reading10",
      "id": "2020049",
      "location": "Santa Rosa",
      "participants": [
        {
          "id": "79",
          "type": "participant"
        },
        {
          "id": "19",
          "type": "participant"
        },
        {
          "id": "72",
          "type": "participant"
        }
      ],
      "sortKey": "245",
      "startTime": "2020-03-08T13:30-0700",
      "title": "Reading #10",
      "track": "Reading",
      "type": "Reading"
    },
    {
      "alternate": false,
      "description": "<p>FOGcon 10's Honored Ghost is Terry Pratchett, a much-lamented loss within our community. Our panelists will talk about their interaction with Pratchett's work and invite the audience to participate in our honoring of this great writer too soon passed.",
      "endTime": "2020-03-08T14:45-0700",
      "hashTag": "#HonoredGhostPanel",
      "id": "2020050",
      "location": "Salon F",
      "participants": [
        {
          "id": "17",
          "type": "moderator"
        },
        {
          "id": "6",
          "type": "participant"
        },
        {
          "id": "35",
          "type": "participant"
        }
      ],
      "sortKey": "250",
      "startTime": "2020-03-08T13:30-0700",
      "title": "Honored Ghost Panel",
      "track": "",
      "type": "Panel"
    },
    {
      "alternate": false,
      "description": "<p>A few final words from our Honored Guests, and who knows what other small surprises? After that, the members of the Concom will be available to listen to feedback. Tell us what we did well, what we could do better, and take the opportunity to volunteer for next year!",
      "endTime": "2020-03-08T16:15-0700",
      "hashTag": "#Retrospective",
      "id": "2020051",
      "location": "Salon A/B",
      "participants": [
        {
          "id": "86",
          "type": "moderator"
        },
        {
          "id": "4",
          "type": "participant"
        },
        {
          "id": "16",
          "type": "participant"
        },
        {
          "id": "17",
          "type": "participant"
        },
        {
          "id": "57",
          "type": "participant"
        },
        {
          "id": "65",
          "type": "participant"
        }
      ],
      "sortKey": "255",
      "startTime": "2020-03-08T15:00-0700",
      "title": "Closing Ceremonies/Retrospective",
      "track": "",
      "type": "Panel"
    },
    {
      "alternate": false,
      "description": "<p>Pre-registered workshop participants: Meet in Salon F for an introduction before breaking into separate groups. (Registration closed January 31.)<p>Our popular writing workshop pairs 3-5 participants with a published author for a Clarion-style critique of manuscripts 7,500 words or less. There is an extra fee, currently $20. Watch the FOGcon newsletter for information about registering for next year&rsquo;s workshop (signups usually from November to January).",
      "endTime": "2020-03-08T18:00-0700",
      "hashTag": "#WritersWorkshop",
      "id": "2020052",
      "location": "Salon F",
      "participants": [],
      "sortKey": "260",
      "startTime": "2020-03-08T15:00-0700",
      "title": "Writers Workshop",
      "track": "Other",
      "type": "Workshop"
    }
  ],
  "participants": [
    {
      "bio": "<p>Award winning author, Beth Barany writes in several genres including young adult adventure fantasy, paranormal romance, and science fiction mysteries. Inspired by living abroad in France and Quebec, she loves creating magical tales of romance, mystery, and adventure that empower women and girls to be the heroes of their own lives.",
      "id": "1",
      "name": {
        "display": "Beth Barany",
        "sort": "BARANY, BETH"
      }
    },
    {
      "bio": "<p>Laura Blackwell is Shimmer&rsquo;s copy editor. Her fiction has appeared in various periodicals and anthologies, including Nightmare, Syntax &amp; Salt, and World Fantasy Award winner She Walks in Shadows. ",
      "id": "2",
      "name": {
        "display": "Laura Blackwell",
        "sort": "BLACKWELL, LAURA"
      }
    },
    {
      "bio": "<p>Anna Blumstein has degrees in urban planning and sustainable agriculture and loves to talk about nature and the built environment. She helped work behind the scenes to create the new &quot;Not a Hugo&quot; YA award. Anna has recently started writing an online urban planning advice column called Building Community ",
      "id": "3",
      "name": {
        "display": "Anna Blumstein",
        "sort": "BLUMSTEIN, ANNA"
      }
    },
    {
      "bio": "<p>Alan Bostick has been by turns a physicist, editor, baker, poker pro, writer, and chocolatier. Equally at home in the salon priv&eacute;e of a Las Vegas casino resort and the slums of Haiti, Bostick is the very model of a real-life Heinlein protagonist. Pour him a shot of single-malt scotch, and ask him about exploring the ruins of ancient civilizations, probing the secrets of gravity with laser light, or working with the vexing polymorphic crystalline structure of cocoa butter.",
      "id": "4",
      "name": {
        "display": "Alan Bostick",
        "sort": "BOSTICK, ALAN"
      }
    },
    {
      "bio": "<p>Keyan Bowes is a peripatetic writer of science fiction and fantasy based in San Francisco.  She's lived in ten cities in seven countries, visited many more, and hopes to add still others to the list). They sometimes form the settings for her stories. Her work can be found online in various webzines (including a Polish one), a podcast, and an award-winning short film; and on paper in a dozen print anthologies. She&rsquo;s a graduate of the 2007 Clarion Workshop for science fiction and fantasy writers. Keyan&rsquo;s website is at www.keyanbowes.org ",
      "id": "5",
      "name": {
        "display": "Keyan Bowes",
        "sort": "BOWES, KEYAN"
      }
    },
    {
      "bio": "<p>Chaz Brenchley has been making a living as a writer since the age of eighteen. He is the author of nine thrillers and five fantasies. As Daniel Fox, he has published a Chinese-influenced fantasy series, beginning with Dragon in Chains; as Ben Macallan, two urban fantasies, Desdaemona and Pandaemonium. A British Fantasy Award winner, he has also published books for children and more than 500 short stories in various genres. He recently married and moved from Newcastle to California.",
      "id": "6",
      "name": {
        "display": "Chaz Brenchley",
        "sort": "BRENCHLEY, CHAZ"
      }
    },
    {
      "bio": "<p>Karen Brenchley has been featured in a Washington Post article about testing autonomous cars,and has sf stories appear in various anthologies both alone and with her husband, Chaz Brenchley. She founded the SF in SF reading series with Terry Bisson, and edited her husband's Lambda Award-winning collection &quot;Bitter Waters&quot;. See more at her website, http://www.karenbrenchley.com.",
      "id": "7",
      "name": {
        "display": "Karen Brenchley",
        "sort": "BRENCHLEY, KAREN"
      }
    },
    {
      "bio": "<p>Marie Brennan is the author of thirteen novels, including the Memoirs of Lady Trent series, the Onyx Court series of historical fantasies, and the urban fantasy Wilder sseries. She has published more than fifty short stories in venues such as On Spec, Beneath Ceaseless Skies, and the acclaimed Clockwork Phoenix anthologies. More information can be found on her website: www.swantower.com.",
      "id": "8",
      "name": {
        "display": "Marie Brennan",
        "sort": "BRENNAN, MARIE"
      }
    },
    {
      "bio": "<p>Self-published SF/F writer, budding book cover artist, and collector of far too much music.",
      "id": "9",
      "name": {
        "display": "Jon Chaisson",
        "sort": "CHAISSON, JON"
      }
    },
    {
      "bio": "<p>Michele Cox found fandom (and filking!) in her teens and never left. Since then she has earned an MA in Theology, begun committing poetry, and taught herself technical writing.  She is a polytheistic panentheistic mystic; her favorite spec fic ranges from Pangborn through Bujold to Jemisin, and more recently Palmer and Hairston. She passes for normal among Bay Area SF fans.",
      "id": "10",
      "name": {
        "display": "Michele Cox",
        "sort": "COX, MICHELE"
      }
    },
    {
      "bio": "<p>Code monkey by day, word monkey by night.",
      "id": "11",
      "name": {
        "display": "Richard S Crawford",
        "sort": "CRAWFORD, RICHARD S"
      }
    },
    {
      "bio": "<p>Garrett Croker is an SFF writer in the San Francisco Bay Area. Find his fiction on Pseudopod, the horror podcast! Outside of writing, he's been an English teacher, a digital marketer, and a copywriter.",
      "id": "12",
      "name": {
        "display": "Garrett Croker",
        "sort": "CROKER, GARRETT"
      }
    },
    {
      "bio": "<p>Chelsea Davis is a writer and radio producer living in San Francisco. She holds a PhD in English literature from Stanford University, where her research focused on literary representations of violence&mdash;from horror film, to war fiction, to apocalyptic writing, to the literary Gothic. Her writing has appeared on LitHub, Horror Homeroom, and other venues. She is an audio producer for the horror podcast Pseudopod. Find her work https://chelseamdavis.net, and follow her on twitter @UnrealCitoyenne",
      "id": "13",
      "name": {
        "display": "Chelsea Davis",
        "sort": "DAVIS, CHELSEA"
      }
    },
    {
      "bio": "<p>Laura Davy lives in California with her husband and her cat. She wrote her first story when she was in Elementary School and, despite the fact that the plot didn&rsquo;t make sense, she kept on writing.  She has been published in Apex, Escape Pod, Sword &amp; Sorceress 31 and others. You can learn more about her at www.lauradavy.com.",
      "id": "14",
      "name": {
        "display": "Laura Davy",
        "sort": "DAVY, LAURA"
      }
    },
    {
      "bio": "<p>I am a writer, a reader and reviewer of speculative fiction. I am a conventional storyteller in an experimental world; a dreamer; a walker and a feeder of crows. See my reviews at www.fantasyliterature.com and follow me on Twitter; @mariond_d",
      "id": "15",
      "name": {
        "display": "Marion Deeds",
        "sort": "DEEDS, MARION"
      }
    },
    {
      "bio": "<p>Lisa Eckstein reads, writes, knits, plays video games, and blogs at lisaeckstein.com.",
      "id": "16",
      "name": {
        "display": "Lisa Eckstein",
        "sort": "ECKSTEIN, LISA"
      }
    },
    {
      "bio": "<p>Kerry Ellis works in clinical trials but her secret passion is archaeology. She once took a year off to travel and nearly got lost in Hong Kong. Her favorite SF/F books are The Lord of the Rings trilogy, The Sparrow by Mary Doria Russell, and Kindred by Octavia Butler. She can spend hours looking at ruins.",
      "id": "17",
      "name": {
        "display": "Kerry Ellis",
        "sort": "ELLIS, KERRY"
      }
    },
    {
      "bio": "<p>Louis Evans is a writer recently returned to his native NYC from a half-decade spent in the SF Bay. His work has been published in Analog SF&amp;F, Escape Pod, The Toast, Third Flatiron Anthologies, and Write Ahead/The Future Looms. <p>He's a two-time winner of Zach Weinersmith's Bad Ad-hoc Hypothesis Festival and the Shipwreck SF bad erotic fanfiction competition. He is a founding co-producer of Cliterary Salon, a feminist and queer literary show in the SF Bay. ",
      "id": "18",
      "name": {
        "display": "Louis Evans",
        "sort": "EVANS, LOUIS"
      }
    },
    {
      "bio": "<p>Rebecca Gomez Farrell's debut fantasy novel, Wings Unseen, came out from Meerkat Press in 2017. Her speculative fiction short stories have appeared in many magazines and anthologies including Beneath Ceaseless Skies, Bull Spec, and Flight into Fright from Word Horde. She is a co-organizer for the East Bay Science Fiction and Fantasy Writers Meetup and a chapter of the Women Who Submit Lit organization. Find all her creative work at her author website: RebeccaGomezFarrell.com.",
      "id": "19",
      "name": {
        "display": "Rebecca Gomez Farrell",
        "sort": "FARRELL, REBECCA GOMEZ"
      }
    },
    {
      "bio": "<p>Andy Goldman has been writing since he was a little kid bashing out stories on his typewriter. They were often incredibly silly firsthand accounts of the adventures of his Transformers, G.I. Joe, and Star Wars action figures. Fast forward thirty years and Andy is still playing with toys and telling stories, much to his delight. The typewriter, alas, did not survive.",
      "id": "20",
      "name": {
        "display": "Andy Goldman",
        "sort": "GOLDMAN, ANDY"
      }
    },
    {
      "bio": "<p>She is a lesbian/feminist activist and author of the double Lambda Literary Award-winning Black, Lesbian, Vampyre novel, THE GILDA STORIES, along with 7 other books of poetry, fiction and essays.",
      "id": "21",
      "name": {
        "display": "Jewelle Gomez",
        "sort": "GOMEZ, JEWELLE"
      }
    },
    {
      "bio": "<p>Daryl Gregory writes genre-mixing novels, stories, and comics. His most recent novel is Spoonbenders, a Nebula, Locus, and World Fantasy Award finalist. Other novels include Harrison Squared, Afterparty, Pandemonium, and the World Fantasy Award- winning short novel We Are All Completely Fine. His stories are collected in Unpossible and Other Stories.",
      "id": "22",
      "name": {
        "display": "Daryl Gregory",
        "sort": "GREGORY, DARYL"
      }
    },
    {
      "bio": "<p>Born In St. Petersburg, Russia. Moved to the USA in 1989 at the age of 19. Received Ph.D. in Mathematics from the University of Chicago. Worked in financial markets in New York. Recently retired from Wall Street and live in Sausalito, California, focusing on writing SF/F.",
      "id": "23",
      "name": {
        "display": "Alex Gurevich",
        "sort": "GUREVICH, ALEX"
      }
    },
    {
      "bio": "<p>Ian K. Hagemann is a mixed-race fan and writer in Seattle. He helped start Potlatch and the Carl Brandon Society, and is currently doing and leading personal work with The Mankind Project and Inward Journey.  He has published several articles in The WisCon chronicles, most recently one on emotions and oppression.  He graduated with a Masters in Social Work in 2019 and is currently working as a therapist with young people.",
      "id": "24",
      "name": {
        "display": "Ian K. Hagemann",
        "sort": "HAGEMANN, IAN K."
      }
    },
    {
      "bio": "<p>Barbara Hawkins is an author, engineer, botanist, and adventure traveler. Her published work includes 'Behind the Forgotten Front,' a coming of age WWII novel set in Burma. She is currently finishing a young adult Sci-fi novel, The Reincarnation of Fortuna. Visit her at BarbaraHawkins-writer.com.",
      "id": "25",
      "name": {
        "display": "Barbara Hawkins",
        "sort": "HAWKINS, BARBARA"
      }
    },
    {
      "bio": "<p>Sheryl R. Hayes can be found untangling plot threads or the yarn her three cats have been playing with. In addition to writing, she is a cosplayer focusing on knit and crochet costumes and works full time at a Bay Area water company. You can follow her blog at http://www.sherylrhayes.com, on Twitter at https://www.twitter.com/sherylrhayes, or on Facebook&nbsp;at https://www.facebook.com/sherylrhayes",
      "id": "26",
      "name": {
        "display": "Sheryl R. Hayes",
        "sort": "HAYES, SHERYL R."
      }
    },
    {
      "bio": "<p>Alyc Helms fled their doctoral program in anthropology and folklore when they realized they preferred fiction to academic writing. They are the author of the Mr. Mystic series from Angry Robot, and as M.A. Carrick (in collaboration with Marie Brennan) the forthcoming Rook and Rose trilogy from Orbit Books.",
      "id": "27",
      "name": {
        "display": "Alyc Helms",
        "sort": "HELMS, ALYC"
      }
    },
    {
      "bio": "<p>Jamie is a professional in the High Tech industry who works entirely too much and manages to squeeze an embarrassing amount of consumption of books, movies, and video games of all genres in around that anyway.",
      "id": "28",
      "name": {
        "display": "Jamie L Henderson",
        "sort": "HENDERSON, JAMIE L"
      }
    },
    {
      "bio": "<p>Crystal Huff edits SFF from around the world, primarily with the FAA in Beijing and World Weaver Press in NM, and has recently returned to writing some of it, as well. Crystal has chaired or co-chaired 7 SFF conventions around the world. Crystal's day job involves fighting the kyriarchy via research on impostor syndrome and giving talks and workshops to combat sexism and transphobia. Pronouns: they/them. Alignment: Chaotic Good.",
      "id": "29",
      "pronouns": "they/them",
      "name": {
        "display": "Crystal M. Huff",
        "sort": "HUFF, CRYSTAL M."
      }
    },
    {
      "bio": "<p>L.S. Johnson lives in Northern California and feeds her cats by indexing books. Her first collection, Vacui Magia:, won the 2016 North Street Book Prize and was a finalist for the World Fantasy Award. Her second collection, Rare Birds, was published in 2019. She is also the author of the gothic novellas Harkworth Hall and Leviathan. The third book in the quartet, The Painter's Widow, will be out in 2020.",
      "id": "30",
      "name": {
        "display": "L.S. Johnson",
        "sort": "JOHNSON, L.S."
      }
    },
    {
      "bio": "<p>Michael R. Johnston is a high school English teacher and writer living in Sacramento, California with his wife, daughter, and more cats than is strictly necessary. His debut Science Fiction novel, The Widening Gyre, was released in March 2019; the sequel, The Blood-Dimmed Tide, was released in February 2020, both by Flame Tree Press. He can be found at mjohnstonbooks.com and on Twitter as @MREJohnston.",
      "id": "31",
      "name": {
        "display": "Michael R. Johnston",
        "sort": "JOHNSTON, MICHAEL R."
      }
    },
    {
      "bio": "<p>Heather Rose Jones is writing a historic fantasy series with swordswomen and magic set in the alternate-Regency-era country of Alpennia. She blogs about research into lesbian-like motifs in history and literature at the Lesbian Historic Motif Project  and writes both historical and fantasy fiction based on that research. She has a PhD in linguistics, studying metaphor theory and the semantics of Medieval Welsh prepositions, and works as an industrial failure investigator.",
      "id": "32",
      "name": {
        "display": "Heather Rose Jones",
        "sort": "JONES, HEATHER ROSE"
      }
    },
    {
      "bio": "<p>Sian M. Jones received an MFA in fiction from Mills College. Her work has appeared in a handful of speculative and literary publications. In her day job, she writes as clearly as she can about complex code. She occasionally updates jonessian.com.",
      "id": "33",
      "name": {
        "display": "Sian M. Jones",
        "sort": "JONES, SIAN M."
      }
    },
    {
      "bio": "<p>Vylar Kaftan has published about 50 stories in places like Clarkesworld, Lightspeed, and Asimov's.  Most recently she published a queer psychic thriller, &quot;Her Silhouette, Drawn in Water&quot; (check the dealers' room!) She won a Nebula for an alternate history novella in Asimov's, &quot;The Weight of the Sunrise,&quot; in which the Incan Empire survives into the 19th century.  She blogs at www.vylarkaftan.net. She, along with her friends and her community, founded FOGcon--a thought which both excites and exhausts her to this very day.",
      "id": "34",
      "name": {
        "display": "Vylar Kaftan",
        "sort": "KAFTAN, VYLAR"
      }
    },
    {
      "bio": "<p>Lynn Alden Kendall grew up in the backwoods, reading everything she could get her hands on, from Reader&rsquo;s Digest Condensed Books to &ldquo;When It Changed&rdquo; by Joanna Russ. Her work has appeared in American Writing and 80! Memories and Reflections on Ursula K. Le Guin. Under various pen names, she has published a novel, a collection of short stories, and four nonfiction books. At her house, the cat-to-lap ratio is greater than 1 and the book-to-human ratio hovers around 5000:1.",
      "id": "35",
      "name": {
        "display": "Lynn Alden Kendall",
        "sort": "KENDALL, LYNN ALDEN"
      }
    },
    {
      "bio": "<p>Katharine Kerr lives in the San Francisco Bay Area with a roommate and a neurotic cat. She's the author of the Deverry series of epic fantasy and the Nola O'Grady series of light-hearted urban fantasy novels.",
      "id": "36",
      "name": {
        "display": "Katharine Kerr",
        "sort": "KERR, KATHARINE"
      }
    },
    {
      "bio": "<p>KJ is an underemployed librarian, lifelong reader, avid gamer and active fan. She journals and publishes fanfiction under the handle &quot;owlmoose&quot;, and is a contributing editor to the Hugo-winning group blog Lady Business. The first FogCon was also the first con KJ ever attended, and she is happy to have become a regular. Her other hobbies include singing, travel, and eating at interesting restaurants. She lives the cliche in San Francisco with her husband and cat.",
      "id": "37",
      "name": {
        "display": "KJ",
        "sort": "KJ"
      }
    },
    {
      "bio": "<p>I am a long time SF fan and less long resident of Berkeley. Professionally I do cryptography after becoming a mathematician: personally I do ham radio, activism around urban planning and transportation, and read a lot of science fiction. My start was with the Golden Age and hard science fiction as a small child, and lately has diversified.",
      "id": "38",
      "name": {
        "display": "Watson Ladd",
        "sort": "LADD, WATSON"
      }
    },
    {
      "bio": "<p>Environmental engineer, game writer, Social Justice Ranger; yes, I proudly 'pander to diversity.' Line Developer for Evil Hat Productions. She/her.",
      "id": "39",
      "pronouns": "she/her",
      "name": {
        "display": "Sophie Lagace",
        "sort": "LAGACE, SOPHIE"
      }
    },
    {
      "bio": "<p>David D. Levine is the author of Andre Norton Award winning novel Arabella of Mars (Tor 2016), sequels Arabella and the Battle of Venus (Tor 2017) and Arabella the Traitor of Mars (Tor 2018), and over fifty SF and fantasy stories. His story &ldquo;Tk&rsquo;Tk&rsquo;Tk&rdquo; won the Hugo, and he has been shortlisted for awards including the Hugo, Nebula, Campbell, and Sturgeon. Stories have appeared in Asimov&rsquo;s, Analog, F&amp;SF, Tor.com, numerous Year&rsquo;s Best anthologies, and his award-winning collection Space Magic.",
      "id": "40",
      "name": {
        "display": "David D. Levine",
        "sort": "LEVINE, DAVID D."
      }
    },
    {
      "bio": "<p>Bradford Lyau has been a program participant for over 25 years.  After teaching at universities in California and Europe, he now works for start-up companies and is also a political consultant.  He publishes academic articles on American, British, and European SF.  He wrote a book-length study analyzing French popular science fiction, &quot;The Anticipation Novelists of 1950s French Science Fiction:  Stepchildren of Voltaire.&quot; In 2019 he received the Sam Moskowitz Archive Award from First Fandom.    ",
      "id": "41",
      "name": {
        "display": "Bradford Lyau",
        "sort": "LYAU, BRADFORD"
      }
    },
    {
      "bio": "<p>Ramona Lyons writes fantasy and other speculative fiction, and film/culture analysis, also often in the speculative fiction space. She's also an applied semiotician. Her work can be found on Semionaut.com and Hilobrow.com.",
      "id": "42",
      "name": {
        "display": "Ramona Lyons",
        "sort": "LYONS, RAMONA"
      }
    },
    {
      "bio": "<p>Daniel Marcus is the author of two novels and many short stories.  Salon.com described his short story collection, &quot;Binding Energy,&quot; as &quot;a cross between Raymond Carver and William Gibson.&quot;  Recent publications include &quot;Bright Moment&quot; (F&amp;SF, Sep/Oct 2011),  &quot;After the Funeral&quot; (F&amp;SF, Sep/Oct 2013), and &quot;Albion Upon the Rock (F&amp;SF, Mar/Apr 2014).",
      "id": "43",
      "name": {
        "display": "Daniel Marcus",
        "sort": "MARCUS, DANIEL"
      }
    },
    {
      "bio": "<p>Latinx author and publisher E.M. Markoff writes about damaged heroes and imperfect villains. Works include The Deadbringer, To Nurture &amp; Kill, and &quot;Leaving the #9.&quot; Under her imprint Tomes &amp; Coffee Press, she published Tales for the Camp Fire, a charity anthology to raise money for California wildfire recovery and relief efforts. She is a member of the Horror Writers Association and is mostly made up of coffee, cat hair, and whiskey.<p>Visit her at www.ellderet.com or at @tomesandcoffee on IG, FB, and Twitter.",
      "id": "44",
      "name": {
        "display": "E.M. Markoff",
        "sort": "MARKOFF, E.M."
      }
    },
    {
      "bio": "<p>My name is Alanna McFall and I am a novelist and playwright based out of the Bay Area. Short story writer, Resident Playwright with PlayGround SF, winner of the 2019 June Anne Baker Award for playwriting, and author of the paranormal novel The Traveling Triple-C Incorporeal Circus!",
      "id": "45",
      "name": {
        "display": "Alanna McFall",
        "sort": "MCFALL, ALANNA"
      }
    },
    {
      "bio": "<p>Mary Anne Mohanraj wrote Bodies in Motion (a finalist for the Asian American Book Awards, translated into six languages) and nine other titles. Mohanraj founded the Hugo-nominated magazine, Strange Horizons, and was Guest of Honor at WisCon 2010.  She has taught at Clarion and is Clinical Assistant Professor of fiction and literature at the Univ. of Illinois.  She serves as Executive Director of the Speculative Literature Foundation (www.speclit.org).  Mohanraj&rsquo;s newest book is The Stars Change.",
      "id": "46",
      "name": {
        "display": "Mary Anne Mohanraj",
        "sort": "MOHANRAJ, MARY ANNE"
      }
    },
    {
      "bio": "<p>Nancy Jane Moore's novel For the Good of the Realm is forthcoming from Aqueduct Press, which also published her science fiction novel The Weave. She writes science fiction and fantasy,teaches empowerment self defense, and holds a fourth degree black belt in Aikido. Her other books include Changeling, Conscientious Inconsistencies, and Walking Contradiction and Other Futures.",
      "id": "47",
      "name": {
        "display": "Nancy Jane Moore",
        "sort": "MOORE, NANCY JANE"
      }
    },
    {
      "bio": "<p>Formerly employed doing Computer Infrastructure primarily administering Linux servers.  ",
      "id": "48",
      "name": {
        "display": "Fred C Moulton",
        "sort": "MOULTON, FRED C"
      }
    },
    {
      "bio": "<p>Kevin Andrew Murphy writes short stories, poems, games, novels, and so on.  He's a long-standing writer for George R.R. Martin's Wild Cards series and also contributes fiction to several roleplaying game worlds.  He also publishes fiction set in his own worlds.",
      "id": "49",
      "name": {
        "display": "Kevin Andrew Murphy",
        "sort": "MURPHY, KEVIN ANDREW"
      }
    },
    {
      "bio": "<p>Tina LeCount Myers is a writer, artist, independent historian, and surfer. Born in Mexico to expat-bohemian parents, she grew up on Southern California tennis courts with a prophecy hanging over her head; her parents hoped she&rsquo;d one day be an author. Tina is a member of The Castro Writers' Cooperative and a guest instructor for the Young Writers' Workshop at 826 Valencia. She is the author of The Song of All, Dreams of the Dark Sky, and Breath of Gods.",
      "id": "50",
      "name": {
        "display": "Tina LeCount Myers",
        "sort": "MYERS, TINA LECOUNT"
      }
    },
    {
      "bio": "<p>Rocket scientist, track cycling race announcer &amp; mustache competitor.",
      "id": "51",
      "name": {
        "display": "Alfred Nash",
        "sort": "NASH, ALFRED"
      }
    },
    {
      "bio": "<p>College Student &amp; Science Fiction Writer",
      "id": "52",
      "name": {
        "display": "Zachariah Ronan Nash",
        "sort": "NASH, ZACHARIAH RONAN"
      }
    },
    {
      "bio": "<p>Director of Projects for Evil Hat Productions.",
      "id": "53",
      "name": {
        "display": "Sean Nittner",
        "sort": "NITTNER, SEAN"
      }
    },
    {
      "bio": "<p>I have been at various times a science fiction editor, book reviewer, bookstore owner, convention organizer, fanzine publisher, award administrator and more. I blog at Body Impolitic with Laurie Toby Edison. Since November 2016, we have focused on issues of resistance and response to the authoritarian American government. I also work with Strike Debt Bay Area and Friends of the Public Bank of Oakland. I work as a contracts manager for a medium-sized publishing company in its San Francisco office",
      "id": "54",
      "name": {
        "display": "Debbie Notkin",
        "sort": "NOTKIN, DEBBIE"
      }
    },
    {
      "bio": "<p>Megan E. O'Keefe was raised amongst journalists, and as soon as she was able joined them by crafting a newsletter which chronicled the daily adventures of the local cat population. She lives in the Bay Area of California, and spends her free time tinkering with anything she can get her hands on.<p>Her fantasy debut, Steal the Sky, won the Gemmell Morningstar Award and her space opera debut, Velocity Weapon is nominated for the Philip K. Dick Award.",
      "id": "55",
      "name": {
        "display": "Megan E. O'Keefe",
        "sort": "O'KEEFE, MEGAN E."
      }
    },
    {
      "bio": "<p>Dominica Phetteplace is a math tutor who writes literary and science fiction. Her work has appeared in Analog, Asimov's, Clarkesworld, Lightspeed, F&amp;SF and The Pushcart Prize Anthology.",
      "id": "56",
      "name": {
        "display": "Dominica Phetteplace",
        "sort": "PHETTEPLACE, DOMINICA"
      }
    },
    {
      "bio": "<p>The Grandma Friend",
      "id": "57",
      "name": {
        "display": "Sasha Pixlee",
        "sort": "PIXLEE, SASHA"
      }
    },
    {
      "bio": "<p>Beth Plutchak is the author of Boundaries, Border Crossings, and Reinventing the Future and Liminal Spaces both available from Aqueduct Press.",
      "id": "58",
      "name": {
        "display": "Beth Plutchak",
        "sort": "PLUTCHAK, BETH"
      }
    },
    {
      "bio": "<p>Writer and software engineer.",
      "id": "59",
      "name": {
        "display": "Caroline Ratajski",
        "sort": "RATAJSKI, CAROLINE"
      }
    },
    {
      "bio": "<p>Loren Rhoads is co-author of Lost Angels and Angelus Rose. She is the author of a space opera trilogy called In the Wake of the Templars and the nonfiction guide 199 Cemeteries To See Before You Die.",
      "id": "60",
      "name": {
        "display": "Loren Rhoads",
        "sort": "RHOADS, LOREN"
      }
    },
    {
      "bio": "<p>Endria is a queer Black and Malay cis-woman. Endria studied creative writing at Harvard, and law at Stanford Law School. She has worked for the past nine years to end the prison industrial complex, the ultimate fantastical horror of our time. See her work in Syntax &amp; Salt Magazine. ",
      "id": "61",
      "name": {
        "display": "Endria Richardson",
        "sort": "RICHARDSON, ENDRIA"
      }
    },
    {
      "bio": "<p>Madeleine Robins is the author of 11 novels, including three Sarah Tolerance alternate Regency-noir mysteries: Point of Honour, Petty Treason, and The Sleeping Partner; and Sold for Endless Rue, a retelling of Rapunzel in a medieval setting.  She lives in San Francisco.",
      "id": "62",
      "name": {
        "display": "Madeleine E. Robins",
        "sort": "ROBINS, MADELEINE E."
      }
    },
    {
      "bio": "<p>Deborah J. Ross writes and edits fantasy and science fiction. Recent novels include Collaborators and The Seven-Petaled Shield trilogy. Her short fiction has appeared in F &amp; SF, Asimov's, and Star Wars: Tales from Jabba's Palace. When she's not writing, she knits, plays classical piano, and practices yoga.  ",
      "id": "63",
      "name": {
        "display": "Deborah J. Ross",
        "sort": "ROSS, DEBORAH J."
      }
    },
    {
      "bio": "<p>A horror fan from birth, Chadwick H. Saxelid loves surrounding himself with books, movies, film soundtracks, horror themed collectibles, and cats.",
      "id": "64",
      "name": {
        "display": "Chadwick H. Saxelid",
        "sort": "SAXELID, CHADWICK H."
      }
    },
    {
      "bio": "<p>Steven Schwartz is a writer of spec fic, smut, and poetry both formal and informal, a letterpress printer, and a firm believer in experimenting with programming.  ",
      "id": "65",
      "name": {
        "display": "Steven Schwartz",
        "sort": "SCHWARTZ, STEVEN"
      }
    },
    {
      "bio": "<p>Steven Schwartz is a writer of spec fic, smut, and poetry both formal and informal, a letterpress printer, and a firm believer in experimenting with programming.",
      "id": "66",
      "name": {
        "display": "Steven Schwartz",
        "sort": "SCHWARTZ, STEVEN"
      }
    },
    {
      "bio": "<p>Effie Seiberg is a science fiction and fantasy writer from the Bay Area. Her stories can be found in the &quot;Women Destroy Science Fiction!&quot; edition of Lightspeed, Analog, Galaxy's Edge, PodCastle, Fireside Fiction, and more. Her story &quot;Rocket Surgery&quot; was an Anlab Award Finalist, and &quot;Thundergod in Therapy&quot; was selected for &quot;The Best of Galaxy's Edge 2015-2017&quot;. ",
      "id": "67",
      "name": {
        "display": "Effie Seiberg",
        "sort": "SEIBERG, EFFIE"
      }
    },
    {
      "bio": "<p>Wendy Shaffer began her literary career as the subject of her babysitter&rsquo;s Ph.D. thesis in child psychology. (She has  never dared read the dissertation.) These days she works as a technical writer. Wendy&rsquo;s poetry has appeared in Strange Horizons and short fiction has appeared in Paradox and Realms of Fantasy. Her current ambitions are to run a half marathon and watch every episode of Doctor Who in existence. (Not concurrently, alas.)",
      "id": "68",
      "name": {
        "display": "Wendy A. Shaffer",
        "sort": "SHAFFER, WENDY A."
      }
    },
    {
      "bio": "<p>Author of The Sorcery Within and other novels. Short fiction in venues such as Asimov's SF, F&amp;SF, Realms of Fantasy, Sword &amp; Sorceress.",
      "id": "69",
      "name": {
        "display": "Dave Smeds",
        "sort": "SMEDS, DAVE"
      }
    },
    {
      "bio": "<p>Arley (Twitter: @arleysorg) grew up in England, Hawaii, and Colorado. He went to Pitzer and scribbled stories for the school pubs. He attended the Odyssey Writing Workshop in 2014. He is associate editor at Locus Magazine &amp; Lightspeed/Nightmare magazines, reviews books for these plus Cascadia Subduction Zone magazine, and does interviews for Clarkesworld magazine. He lives in Oakland and can usually be found writing in local coffee shops.",
      "id": "70",
      "name": {
        "display": "Arley Sorg",
        "sort": "SORG, ARLEY"
      }
    },
    {
      "bio": "<p>Editor, The Journal of Irreproducible Results (the science humor magazine). MA, History of Science, UC Berkeley.  I teach astronomy at UC Berkeley.  I have a Steampunk novel (Astronomy, Hard SF) ready to publish.  Travel (around the US in my RV).  Maker Faires.  Baseball. ",
      "id": "71",
      "name": {
        "display": "Norm Sperling",
        "sort": "SPERLING, NORM"
      }
    },
    {
      "bio": "<p>Andrea Stewart is the daughter of immigrants, and was raised in a number of places across the United States. Her parents always emphasized science and education, so she spent her childhood immersed in Star Trek and odd-smelling library books. She now lives in sunny California. Her epic fantasy trilogy starting with Bone Shard Daughter will be out from Orbit in autumn 2020.",
      "id": "72",
      "name": {
        "display": "Andrea Stewart",
        "sort": "STEWART, ANDREA"
      }
    },
    {
      "bio": "<p>I've been active in SF fandom since the late 70's. Chaired a few Potlatchs and a couple FOGcons. I have a BA in Dramatic Arts from UC Berkeley, I may be the only Beckett/Heinlein fan in existence. I'm an Independent Living, lefty advocate. I wish I could read faster and write more. I still want to drive the first power wheelchair on the Moon (or Mars, I'm not picky.)",
      "id": "73",
      "name": {
        "display": "Guy W. Thomas",
        "sort": "THOMAS, GUY W."
      }
    },
    {
      "bio": "<p>Juliette Wade's debut novel, Mazes of Power, is out now from DAW books! She has appeared in Clarkesworld, Analog, and Fantasy and Science Fiction. She uses her expertise in linguistics, anthropology and Japanese to enhance her work. She lives the SF Bay Area with her husband and two sons, who support and inspire her. She runs the Dive into Worldbuilding video series and workshop at https://www.patreon.com/JulietteWade.",
      "id": "74",
      "name": {
        "display": "Juliette Wade",
        "sort": "WADE, JULIETTE"
      }
    },
    {
      "bio": "<p>I was a 2015 and 2016 Lambda Literary Emerging LGBTQ Fellow. My writing has appeared in multiple anthologies as well as Bust Magazine, Odyssey, and Teaching Tolerance. I have two books currently on submission: a novel retelling of the Irish Murder Ballad &quot;The Two Sisters&quot; and River &amp; Skylar Explore Time &amp; Space, a children's book about paradoxes. Find me and my opinions online at pamlwatts.wordpress.com",
      "id": "75",
      "name": {
        "display": "Pam Watts",
        "sort": "WATTS, PAM"
      }
    },
    {
      "bio": "<p>I review for Fantasy Literature (http://www.fantasyliterature.com).  I'm an attorney, but would rather spend my time reading.",
      "id": "76",
      "name": {
        "display": "Terry Weyna",
        "sort": "WEYNA, TERRY"
      }
    },
    {
      "bio": "<p>Cliff Winnig's stories appear in the anthologies Straight Outta Deadwood, That Ain't Right: Historical Accounts of the Miskatonic Valley, When the Hero Comes Home: 2, and others, as well as the Escape Pod podcast. Cliff is a Clarion graduate and a four-time finalist in the Writers of the Future Contest. He's taught writing workshops and a class on the history of science fiction. He also sings, plays sitar, dances, and practices aikido.",
      "id": "77",
      "name": {
        "display": "Cliff Winnig",
        "sort": "WINNIG, CLIFF"
      }
    },
    {
      "id": "78",
      "name": {
        "display": "Skye Alexander",
        "sort": "ALEXANDER, SKYE"
      }
    },
    {
      "id": "79",
      "name": {
        "display": "Elwin Cotman",
        "sort": "COTMAN, ELWIN"
      }
    },
    {
      "id": "80",
      "name": {
        "display": "Bonnie J Erwin",
        "sort": "ERWIN, BONNIE J"
      }
    },
    {
      "id": "81",
      "name": {
        "display": "Trish Henry",
        "sort": "HENRY, TRISH"
      }
    },
    {
      "id": "82",
      "name": {
        "display": "Ramona  Lyons",
        "sort": "LYONS, RAMONA"
      }
    },
    {
      "id": "83",
      "name": {
        "display": "Nisi Shawl",
        "sort": "SHAWL, NISI"
      }
    },
    {
      "id": "84",
      "name": {
        "display": "Jennifer Crawford",
        "sort": "CRAWFORD, JENNIFER"
      }
    },
    {
      "id": "85",
      "name": {
        "display": "M: Sean Nittner",
        "sort": "NITTNER, M: SEAN"
      }
    },
    {
      "id": "86",
      "name": {
        "display": "Montse Cordero",
        "sort": "CORDERO, MONTSE"
      }
    }
  ]
}}
