{
  "project_info": {
    "project_number": "357712544003",
    "firebase_url": "https://fogguide-fd7bb.firebaseio.com",
    "project_id": "fogguide-fd7bb",
    "storage_bucket": "fogguide-fd7bb.appspot.com"
  },
  "client": [
    {
      "client_info": {
        "mobilesdk_app_id": "1:357712544003:android:5f02f468043fc9d4",
        "android_client_info": {
          "package_name": "org.ayizan.android.fogguide"
        }
      },
      "oauth_client": [
        {
          "client_id": "357712544003-6ohcelvn248f64g35kh816oa70i5guo3.apps.googleusercontent.com",
          "client_type": 3
        }
      ],
      "api_key": [
        {
          "current_key": "AIzaSyDrv7hNT6kMtBzJRvEescjKeaT4-eKoVOQ"
        }
      ],
      "services": {
        "analytics_service": {
          "status": 1
        },
        "appinvite_service": {
          "status": 1,
          "other_platform_oauth_client": []
        },
        "ads_service": {
          "status": 2
        }
      }
    }
  ],
  "configuration_version": "1"
}